Maya Doitch - Open Ended Analysis
…
(5 pts)

np |> 
  filter(elevation_gain < 500) |> 
  group_by(area_name) |> 
  slice_max(n = 1, order_by = popularity) |> 
  select(area_name, name, popularity)

# A tibble: 60 × 3
# Groups:   area_name [60]
   area_name                                  name                    popularity
   <chr>                                      <chr>                        <dbl>
 1 Acadia National Park                       The Beehive Loop Trail       43.9 
 2 Arches National Park                       Delicate Arch Trail          63.7 
 3 Badlands National Park                     Notch Trail                  24.5 
 4 Big Bend National Park                     Lost Mine Trail              28.6 
 5 Biscayne National Park                     Biscayne National Park…       5.89
 6 Black Canyon of the Gunnison National Park Warner Point Nature Tr…      16.3 
 7 Bryce Canyon National Park                 Navajo Loop and Queen'…      52.0 
 8 Canyonlands National Park                  Mesa Arch Trail              36.2 
 9 Capitol Reef National Park                 Hickman Bridge Trail         30.0 
10 Carlsbad Caverns National Park             Carlsbad Caverns Natio…      15.2 
# ℹ 50 more rows
…
